{
  "patients": {
    "resourceType": "Bundle",
    "type": "searchset",
    "total": 1,
    "entry": [
      {
        "fullUrl": "https://api.1up.health/fhir/dstu2/Patient/3d3d15496c25",
        "search": {
          "mode": "match"
        },
        "resource": {
          "birthDate": "1950-03-14",
          "contact": [
            {
              "name": {
                "given": ["LISA"],
                "period": {
                  "start": "2008-08-21T16:11:46.000Z"
                },
                "text": "TEST, LISA",
                "family": ["TEST"],
                "use": "official"
              },
              "telecom": [
                {
                  "period": {
                    "start": "2012-01-06T21:06:50.000Z"
                  },
                  "system": "phone",
                  "value": "1234567888",
                  "use": "home"
                },
                {
                  "period": {
                    "start": "2019-12-19T15:33:18.000Z"
                  },
                  "system": "email",
                  "value": "wicos66756@qmailshop.com",
                  "use": "home"
                },
                {
                  "period": {
                    "start": "2019-12-19T15:33:18.000Z"
                  },
                  "system": "email",
                  "value": "juanito.cambridge@opka.org",
                  "use": "home"
                }
              ],
              "period": {
                "start": "2019-04-11T20:54:02.000Z",
                "end": "2019-05-16T16:16:12.000Z"
              },
              "address": {
                "country": "USA",
                "period": {
                  "start": "2012-01-06T21:06:50.000Z"
                },
                "city": "Schenectady",
                "use": "home",
                "line": ["123 Test Ln"],
                "district": "Schenectady",
                "postalCode": "12345",
                "text": "123 Test Ln\nSchenectady, NY 12345\nUSA",
                "state": "NY"
              },
              "relationship": [
                {
                  "text": "Authorized Representative"
                }
              ],
              "gender": "female"
            },
            {
              "name": {
                "given": ["NANCY"],
                "period": {
                  "start": "2018-12-03T16:37:19.000Z"
                },
                "text": "SMART, NANCY",
                "family": ["SMART"],
                "use": "official"
              },
              "telecom": [
                {
                  "period": {
                    "start": "2020-07-16T21:19:39.000Z"
                  },
                  "system": "phone",
                  "value": "8888888888",
                  "use": "home"
                }
              ],
              "period": {
                "start": "2018-12-03T16:37:16.000Z",
                "end": "2018-12-04T09:17:39.000Z"
              },
              "relationship": [
                {
                  "text": "Authorized Representative"
                }
              ],
              "gender": "female"
            },
            {
              "name": {
                "given": ["FRED", "RICK"],
                "period": {
                  "start": "2016-08-31T18:24:54.000Z"
                },
                "use": "official",
                "prefix": ["Mr"],
                "text": "SMART Jr, FRED RICK",
                "family": ["SMART"],
                "suffix": ["Jr"]
              },
              "telecom": [
                {
                  "period": {
                    "start": "2017-11-16T17:18:18.000Z"
                  },
                  "system": "phone",
                  "value": "8168889999",
                  "use": "home"
                },
                {
                  "period": {
                    "start": "2018-09-13T16:54:27.000Z"
                  },
                  "system": "email",
                  "value": "ashley.hensiek@cerner.com",
                  "use": "home"
                },
                {
                  "period": {
                    "start": "2019-05-17T15:33:18.000Z"
                  },
                  "system": "email",
                  "value": "Kathy.pickering@cerner.com",
                  "use": "home"
                }
              ],
              "period": {
                "start": "2017-12-28T15:41:08.000Z",
                "end": "2018-01-04T04:57:53.000Z"
              },
              "address": {
                "country": "USA",
                "period": {
                  "start": "2017-11-16T17:18:18.000Z"
                },
                "city": "Kansas City",
                "use": "home",
                "line": ["1000 Rockhill Rd", "Apartment 2"],
                "district": "Jackson",
                "postalCode": "64114",
                "text": "1000 Rockhill Rd\nApartment 2\nKansas City, MO 64114\nUSA",
                "state": "MO"
              },
              "relationship": [
                {
                  "text": "Authorized Representative"
                }
              ],
              "gender": "male"
            },
            {
              "name": {
                "given": ["NANCY"],
                "period": {
                  "start": "2018-12-03T16:37:19.000Z"
                },
                "text": "SMART, NANCY",
                "family": ["SMART"],
                "use": "official"
              },
              "telecom": [
                {
                  "period": {
                    "start": "2020-07-16T21:19:39.000Z"
                  },
                  "system": "phone",
                  "value": "8888888888",
                  "use": "home"
                }
              ],
              "period": {
                "start": "2020-07-17T15:33:16.000Z"
              },
              "relationship": [
                {
                  "coding": [
                    {
                      "system": "http://hl7.org/fhir/patient-contact-relationship",
                      "code": "family",
                      "userSelected": false,
                      "display": "Family"
                    }
                  ],
                  "text": "Family Member"
                }
              ],
              "gender": "female"
            },
            {
              "name": {
                "given": ["CATHYY"],
                "text": "PHILLIPSS, CATHYY",
                "family": ["PHILLIPSS"],
                "use": "official"
              },
              "telecom": [
                {
                  "period": {
                    "start": "2020-05-08T20:33:12.000Z"
                  },
                  "system": "phone",
                  "value": "5729134192",
                  "use": "work"
                },
                {
                  "period": {
                    "start": "2020-04-30T16:24:52.000Z"
                  },
                  "system": "phone",
                  "value": "4445556677",
                  "use": "home"
                },
                {
                  "period": {
                    "start": "2020-04-30T16:24:52.000Z"
                  },
                  "system": "phone",
                  "value": "5554447799",
                  "use": "mobile"
                },
                {
                  "period": {
                    "start": "2020-05-08T20:33:12.000Z"
                  },
                  "system": "email",
                  "value": "someabc@somecompany.com",
                  "use": "home"
                }
              ],
              "period": {
                "start": "2020-07-13T16:20:05.000Z"
              },
              "address": {
                "country": "USA",
                "period": {
                  "start": "2020-04-30T16:24:52.000Z"
                },
                "city": "Missouri City",
                "use": "home",
                "line": ["1234 Someplace,address,,"],
                "district": "Adams",
                "postalCode": "64078",
                "text": "1234 Someplace,address,,\nMissouri City, CT 64078\nUSA",
                "state": "CT"
              },
              "relationship": [
                {
                  "coding": [
                    {
                      "system": "http://hl7.org/fhir/patient-contact-relationship",
                      "code": "family",
                      "userSelected": false,
                      "display": "Family"
                    }
                  ],
                  "text": "Family Member"
                }
              ],
              "gender": "female"
            },
            {
              "name": {
                "given": ["RHEAA"],
                "text": "SHAROON, RHEAA",
                "family": ["SHAROON"],
                "use": "official"
              },
              "telecom": [
                {
                  "period": {
                    "start": "2020-05-08T20:30:58.000Z"
                  },
                  "system": "phone",
                  "value": "7777777777",
                  "use": "work"
                },
                {
                  "period": {
                    "start": "2020-04-24T14:01:24.000Z"
                  },
                  "system": "phone",
                  "value": "5555555555",
                  "use": "home"
                },
                {
                  "period": {
                    "start": "2020-05-08T20:30:58.000Z"
                  },
                  "system": "phone",
                  "value": "4444444444",
                  "use": "mobile"
                },
                {
                  "period": {
                    "start": "2020-05-08T20:30:58.000Z"
                  },
                  "system": "email",
                  "value": "somewhere@company.com",
                  "use": "home"
                }
              ],
              "period": {
                "start": "2020-05-08T20:37:41.000Z"
              },
              "address": {
                "country": "USA",
                "period": {
                  "start": "2020-04-24T14:01:24.000Z"
                },
                "city": "Missouri City",
                "use": "home",
                "line": ["1234 somestreet", "address line 2"],
                "district": "Clay",
                "postalCode": "64072",
                "text": "1234 somestreet\naddress line 2\nMissouri City, MO 64072\nUSA",
                "state": "MO"
              },
              "relationship": [
                {
                  "coding": [
                    {
                      "system": "http://hl7.org/fhir/patient-contact-relationship",
                      "code": "family",
                      "userSelected": false,
                      "display": "Family"
                    }
                  ],
                  "text": "Family Member"
                }
              ],
              "gender": "female"
            },
            {
              "name": {
                "given": ["JOSHUA", "GRAHAM"],
                "period": {
                  "start": "2020-02-20T20:21:54.000Z"
                },
                "text": "SMART ESQ, JOSHUA GRAHAM",
                "family": ["SMART"],
                "suffix": ["ESQ"],
                "use": "official"
              },
              "telecom": [
                {
                  "period": {
                    "start": "2020-02-20T20:21:52.000Z"
                  },
                  "system": "phone",
                  "value": "3038752004",
                  "use": "home"
                },
                {
                  "period": {
                    "start": "2020-02-20T20:21:52.000Z"
                  },
                  "system": "email",
                  "value": "jg@jg.me",
                  "use": "home"
                }
              ],
              "period": {
                "start": "2020-03-13T19:22:28.000Z",
                "end": "2020-04-07T17:56:42.000Z"
              },
              "address": {
                "country": "USA",
                "period": {
                  "start": "2020-02-20T20:21:52.000Z"
                },
                "city": "North Kansas City",
                "use": "home",
                "line": ["511 NW 32nd ave"],
                "district": "Clay",
                "postalCode": "64116",
                "text": "511 NW 32nd ave\nNorth Kansas City, MO 64116\nUSA",
                "state": "MO"
              },
              "relationship": [
                {
                  "coding": [
                    {
                      "system": "http://hl7.org/fhir/patient-contact-relationship",
                      "code": "family",
                      "userSelected": false,
                      "display": "Family"
                    }
                  ],
                  "text": "Family Member"
                }
              ],
              "gender": "male"
            },
            {
              "name": {
                "given": ["JUSTIN"],
                "period": {
                  "start": "2013-05-08T15:39:32.000Z"
                },
                "text": "TIMOTHY, JUSTIN",
                "family": ["TIMOTHY"],
                "use": "official"
              },
              "telecom": [
                {
                  "value": "0870625234",
                  "period": {
                    "start": "2014-10-15T16:47:28.000Z"
                  },
                  "system": "phone"
                },
                {
                  "period": {
                    "start": "2014-10-15T16:47:28.000Z"
                  },
                  "system": "phone",
                  "value": "3656365645",
                  "use": "home"
                },
                {
                  "period": {
                    "start": "2014-10-15T19:12:53.000Z"
                  },
                  "system": "phone",
                  "value": "2452342342",
                  "use": "mobile"
                }
              ],
              "period": {
                "start": "2020-03-13T16:58:18.000Z",
                "end": "2020-03-13T18:52:17.000Z"
              },
              "address": {
                "country": "USA",
                "period": {
                  "start": "2014-10-15T16:47:28.000Z"
                },
                "city": "Treece",
                "use": "home",
                "line": ["45 gfhd"],
                "district": "Cherokee",
                "postalCode": "66778",
                "text": "45 gfhd\nTreece, KS 66778\nUSA",
                "state": "KS"
              },
              "relationship": [
                {
                  "coding": [
                    {
                      "system": "http://hl7.org/fhir/patient-contact-relationship",
                      "code": "family",
                      "userSelected": false,
                      "display": "Family"
                    }
                  ],
                  "text": "Family Member"
                }
              ],
              "gender": "male"
            },
            {
              "name": {
                "given": ["JUSTIN"],
                "period": {
                  "start": "2013-05-08T15:39:32.000Z"
                },
                "text": "TIMOTHY, JUSTIN",
                "family": ["TIMOTHY"],
                "use": "official"
              },
              "telecom": [
                {
                  "value": "0870625234",
                  "period": {
                    "start": "2014-10-15T16:47:28.000Z"
                  },
                  "system": "phone"
                },
                {
                  "period": {
                    "start": "2014-10-15T16:47:28.000Z"
                  },
                  "system": "phone",
                  "value": "3656365645",
                  "use": "home"
                },
                {
                  "period": {
                    "start": "2014-10-15T19:12:53.000Z"
                  },
                  "system": "phone",
                  "value": "2452342342",
                  "use": "mobile"
                }
              ],
              "period": {
                "start": "2020-03-12T21:59:55.000Z",
                "end": "2020-03-12T22:16:12.000Z"
              },
              "address": {
                "country": "USA",
                "period": {
                  "start": "2014-10-15T16:47:28.000Z"
                },
                "city": "Treece",
                "use": "home",
                "line": ["45 gfhd"],
                "district": "Cherokee",
                "postalCode": "66778",
                "text": "45 gfhd\nTreece, KS 66778\nUSA",
                "state": "KS"
              },
              "relationship": [
                {
                  "coding": [
                    {
                      "system": "http://hl7.org/fhir/patient-contact-relationship",
                      "code": "family",
                      "userSelected": false,
                      "display": "Family"
                    }
                  ],
                  "text": "Family Member"
                }
              ],
              "gender": "male"
            },
            {
              "name": {
                "given": ["ADAM"],
                "period": {
                  "start": "2017-10-05T17:21:05.000Z"
                },
                "text": "CROWN, ADAM",
                "family": ["CROWN"],
                "use": "official"
              },
              "telecom": [
                {
                  "period": {
                    "start": "2017-10-05T17:21:04.000Z"
                  },
                  "system": "phone",
                  "value": "8162012074",
                  "use": "home"
                },
                {
                  "period": {
                    "start": "2017-10-05T17:23:17.000Z"
                  },
                  "system": "email",
                  "value": "adam.crown@cerner.com",
                  "use": "home"
                }
              ],
              "period": {
                "start": "2019-04-26T19:08:56.000Z",
                "end": "2019-05-16T16:16:12.000Z"
              },
              "address": {
                "country": "USA",
                "period": {
                  "start": "2017-10-05T17:21:04.000Z"
                },
                "city": "Randolph",
                "use": "home",
                "line": ["2800 Rockcreek Parkway"],
                "district": "Clay",
                "postalCode": "64117",
                "text": "2800 Rockcreek Parkway\nRandolph, MO 64117\nUSA",
                "state": "MO"
              },
              "relationship": [
                {
                  "text": "Power of Attorney"
                }
              ],
              "gender": "male"
            },
            {
              "name": {
                "given": ["FRED", "RICK"],
                "period": {
                  "start": "2016-08-31T18:24:54.000Z"
                },
                "use": "official",
                "prefix": ["Mr"],
                "text": "SMART Jr, FRED RICK",
                "family": ["SMART"],
                "suffix": ["Jr"]
              },
              "telecom": [
                {
                  "period": {
                    "start": "2017-11-16T17:18:18.000Z"
                  },
                  "system": "phone",
                  "value": "8168889999",
                  "use": "home"
                },
                {
                  "period": {
                    "start": "2018-09-13T16:54:27.000Z"
                  },
                  "system": "email",
                  "value": "ashley.hensiek@cerner.com",
                  "use": "home"
                },
                {
                  "period": {
                    "start": "2019-05-17T15:33:18.000Z"
                  },
                  "system": "email",
                  "value": "Kathy.pickering@cerner.com",
                  "use": "home"
                }
              ],
              "period": {
                "start": "2019-04-26T19:37:12.000Z",
                "end": "2019-05-16T16:16:12.000Z"
              },
              "address": {
                "country": "USA",
                "period": {
                  "start": "2017-11-16T17:18:18.000Z"
                },
                "city": "Kansas City",
                "use": "home",
                "line": ["1000 Rockhill Rd", "Apartment 2"],
                "district": "Jackson",
                "postalCode": "64114",
                "text": "1000 Rockhill Rd\nApartment 2\nKansas City, MO 64114\nUSA",
                "state": "MO"
              },
              "relationship": [
                {
                  "text": "Power of Attorney"
                }
              ],
              "gender": "male"
            }
          ],
          "identifier": [
            {
              "period": {
                "start": "2019-08-07T22:12:36.000Z"
              },
              "system": "urn:oid:2.16.840.1.113883.3.787.0.0",
              "type": {
                "coding": [
                  {
                    "system": "http://hl7.org/fhir/v2/0203",
                    "code": "MR",
                    "userSelected": false,
                    "display": "Medical record number"
                  }
                ],
                "text": "Community Medical Record Number"
              },
              "value": "2453651",
              "use": "usual"
            },
            {
              "period": {
                "start": "2016-06-22T20:25:56.000Z"
              },
              "system": "urn:oid:1.1.1.1.1.1",
              "type": {
                "coding": [
                  {
                    "system": "http://hl7.org/fhir/v2/0203",
                    "code": "MR",
                    "userSelected": false,
                    "display": "Medical record number"
                  }
                ],
                "text": "MRN"
              },
              "value": "10002700",
              "use": "usual"
            },
            {
              "period": {
                "start": "2019-09-18T20:45:32.000Z"
              },
              "system": "urn:oid:2.16.840.1.113883.3.42.10001.100001.12",
              "type": {
                "text": "Military Id"
              },
              "value": "565848",
              "use": "usual"
            },
            {
              "period": {
                "start": "2017-09-26T05:00:00.000Z",
                "end": "2019-01-02T05:00:00.000Z"
              },
              "system": "urn:oid:2.16.840.1.113883.3.13.8",
              "type": {
                "coding": [
                  {
                    "system": "http://hl7.org/fhir/v2/0203",
                    "code": "U",
                    "userSelected": false,
                    "display": "Unspecified identifier"
                  }
                ],
                "text": "Messaging"
              },
              "value": "00000001236790",
              "use": "usual"
            },
            {
              "period": {
                "start": "2016-01-02T05:00:00.000Z"
              },
              "system": "urn:oid:2.16.840.1.113883.3.13.8",
              "type": {
                "coding": [
                  {
                    "system": "http://hl7.org/fhir/v2/0203",
                    "code": "U",
                    "userSelected": false,
                    "display": "Unspecified identifier"
                  }
                ],
                "text": "Messaging"
              },
              "value": "65DBEC0B8D154E3488FA5FFE9AC7713F",
              "use": "usual"
            },
            {
              "period": {
                "start": "2019-09-26T05:00:00.000Z"
              },
              "system": "urn:oid:2.16.840.1.113883.3.13.6",
              "type": {
                "coding": [
                  {
                    "system": "http://hl7.org/fhir/v2/0203",
                    "code": "AN",
                    "userSelected": false,
                    "display": "Account number"
                  }
                ],
                "text": "Federated Person Principal"
              },
              "value": "URN:CERNER:IDENTITY-FEDERATION:REALM:2E882EFF-FA72-4882-ADC8-A685F7D2BFA6:PRINCIPAL:AD8BC85BA503F355F89003D1A8C82A9E0",
              "use": "usual"
            },
            {
              "period": {
                "start": "2019-09-26T05:00:00.000Z"
              },
              "system": "urn:oid:2.16.840.1.113883.3.13.6",
              "type": {
                "coding": [
                  {
                    "system": "http://hl7.org/fhir/v2/0203",
                    "code": "AN",
                    "userSelected": false,
                    "display": "Account number"
                  }
                ],
                "text": "Federated Person Principal"
              },
              "value": "URN:CERNER:IDENTITY-FEDERATION:REALM:IDPR3ALM1D:PRINCIPAL:FDF5679876",
              "use": "usual"
            },
            {
              "period": {
                "start": "2017-09-26T05:00:00.000Z"
              },
              "system": "urn:oid:2.16.840.1.113883.3.13.6",
              "type": {
                "coding": [
                  {
                    "system": "http://hl7.org/fhir/v2/0203",
                    "code": "AN",
                    "userSelected": false,
                    "display": "Account number"
                  }
                ],
                "text": "Federated Person Principal"
              },
              "value": "URN:CERNER:IDENTITY-FEDERATION:REALM:687F29DD-69DD-4DE5-ACB1-FD8A2241EF3A:PRINCIPAL:ANDNA",
              "use": "usual"
            },
            {
              "period": {
                "start": "2017-09-26T05:00:00.000Z"
              },
              "system": "urn:oid:2.16.840.1.113883.3.13.6",
              "type": {
                "coding": [
                  {
                    "system": "http://hl7.org/fhir/v2/0203",
                    "code": "AN",
                    "userSelected": false,
                    "display": "Account number"
                  }
                ],
                "text": "Federated Person Principal"
              },
              "value": "URN:CERNER:IDENTITY-FEDERATION:REALM:IDPR3ALM1D:PRINCIPAL:P01029304959",
              "use": "usual"
            },
            {
              "period": {
                "start": "2017-09-26T05:00:00.000Z"
              },
              "system": "urn:oid:2.16.840.1.113883.3.13.6",
              "type": {
                "coding": [
                  {
                    "system": "http://hl7.org/fhir/v2/0203",
                    "code": "AN",
                    "userSelected": false,
                    "display": "Account number"
                  }
                ],
                "text": "Federated Person Principal"
              },
              "value": "URN:CERNER:IDENTITY-FEDERATION:REALM:IDPR3ALM1D:PRINCIPAL:ZESTYTEST1581364224",
              "use": "usual"
            },
            {
              "period": {
                "start": "2017-09-26T05:00:00.000Z"
              },
              "system": "urn:oid:2.16.840.1.113883.3.13.6",
              "type": {
                "coding": [
                  {
                    "system": "http://hl7.org/fhir/v2/0203",
                    "code": "AN",
                    "userSelected": false,
                    "display": "Account number"
                  }
                ],
                "text": "Federated Person Principal"
              },
              "value": "URN:CERNER:IDENTITY-FEDERATION:REALM:IDPR3ALM1D:PRINCIPAL:ZESTYTEST1581364263",
              "use": "usual"
            },
            {
              "period": {
                "start": "2017-09-26T05:00:00.000Z"
              },
              "system": "urn:oid:2.16.840.1.113883.3.13.6",
              "type": {
                "coding": [
                  {
                    "system": "http://hl7.org/fhir/v2/0203",
                    "code": "AN",
                    "userSelected": false,
                    "display": "Account number"
                  }
                ],
                "text": "Federated Person Principal"
              },
              "value": "URN:CERNER:IDENTITY-FEDERATION:REALM:IDPR3ALM1D:PRINCIPAL:ZESTYTEST1581364281",
              "use": "usual"
            },
            {
              "period": {
                "start": "2017-09-26T05:00:00.000Z"
              },
              "system": "urn:oid:2.16.840.1.113883.3.13.6",
              "type": {
                "coding": [
                  {
                    "system": "http://hl7.org/fhir/v2/0203",
                    "code": "AN",
                    "userSelected": false,
                    "display": "Account number"
                  }
                ],
                "text": "Federated Person Principal"
              },
              "value": "URN:CERNER:IDENTITY-FEDERATION:REALM:IDPR3ALM1D:PRINCIPAL:ZESTYTEST1581364305",
              "use": "usual"
            },
            {
              "period": {
                "start": "2017-09-26T05:00:00.000Z"
              },
              "system": "urn:oid:2.16.840.1.113883.3.13.6",
              "type": {
                "coding": [
                  {
                    "system": "http://hl7.org/fhir/v2/0203",
                    "code": "AN",
                    "userSelected": false,
                    "display": "Account number"
                  }
                ],
                "text": "Federated Person Principal"
              },
              "value": "URN:CERNER:IDENTITY-FEDERATION:REALM:IDPR3ALM1D:PRINCIPAL:LQ4SG3D28BRIOP",
              "use": "usual"
            },
            {
              "period": {
                "start": "2017-09-26T05:00:00.000Z"
              },
              "system": "urn:oid:2.16.840.1.113883.3.13.6",
              "type": {
                "coding": [
                  {
                    "system": "http://hl7.org/fhir/v2/0203",
                    "code": "AN",
                    "userSelected": false,
                    "display": "Account number"
                  }
                ],
                "text": "Federated Person Principal"
              },
              "value": "URN:CERNER:IDENTITY-FEDERATION:REALM:IDPR3ALM1D:PRINCIPAL:LQ4SG3D28BRIO999P",
              "use": "usual"
            },
            {
              "period": {
                "start": "2017-09-26T05:00:00.000Z"
              },
              "system": "urn:oid:2.16.840.1.113883.3.13.6",
              "type": {
                "coding": [
                  {
                    "system": "http://hl7.org/fhir/v2/0203",
                    "code": "AN",
                    "userSelected": false,
                    "display": "Account number"
                  }
                ],
                "text": "Federated Person Principal"
              },
              "value": "URN:CERNER:IDENTITY-FEDERATION:REALM:IDPR3ALM1D:PRINCIPAL:P01029304959EJ10",
              "use": "usual"
            },
            {
              "period": {
                "start": "2017-09-26T05:00:00.000Z"
              },
              "system": "urn:oid:2.16.840.1.113883.3.13.6",
              "type": {
                "coding": [
                  {
                    "system": "http://hl7.org/fhir/v2/0203",
                    "code": "AN",
                    "userSelected": false,
                    "display": "Account number"
                  }
                ],
                "text": "Federated Person Principal"
              },
              "value": "URN:CERNER:IDENTITY-FEDERATION:REALM:IDPR3ALM1D:PRINCIPAL:P01029304959EJ13",
              "use": "usual"
            },
            {
              "period": {
                "start": "2017-09-26T05:00:00.000Z"
              },
              "system": "urn:oid:2.16.840.1.113883.3.13.6",
              "type": {
                "coding": [
                  {
                    "system": "http://hl7.org/fhir/v2/0203",
                    "code": "AN",
                    "userSelected": false,
                    "display": "Account number"
                  }
                ],
                "text": "Federated Person Principal"
              },
              "value": "URN:CERNER:IDENTITY-FEDERATION:REALM:IDPR3ALM1D:PRINCIPAL:ZESTYTEST1500000000000",
              "use": "usual"
            },
            {
              "period": {
                "start": "2017-09-26T05:00:00.000Z"
              },
              "system": "urn:oid:2.16.840.1.113883.3.13.6",
              "type": {
                "coding": [
                  {
                    "system": "http://hl7.org/fhir/v2/0203",
                    "code": "AN",
                    "userSelected": false,
                    "display": "Account number"
                  }
                ],
                "text": "Federated Person Principal"
              },
              "value": "URN:CERNER:IDENTITY-FEDERATION:REALM:IDPR3ALM1D:PRINCIPAL:P01029304959EJ1",
              "use": "usual"
            },
            {
              "period": {
                "start": "2017-09-26T05:00:00.000Z"
              },
              "system": "urn:oid:2.16.840.1.113883.3.13.6",
              "type": {
                "coding": [
                  {
                    "system": "http://hl7.org/fhir/v2/0203",
                    "code": "AN",
                    "userSelected": false,
                    "display": "Account number"
                  }
                ],
                "text": "Federated Person Principal"
              },
              "value": "URN:CERNER:IDENTITY-FEDERATION:REALM:IDPR3ALM1D:PRINCIPAL:P01029304959EJ2",
              "use": "usual"
            },
            {
              "period": {
                "start": "2017-09-26T05:00:00.000Z"
              },
              "system": "urn:oid:2.16.840.1.113883.3.13.6",
              "type": {
                "coding": [
                  {
                    "system": "http://hl7.org/fhir/v2/0203",
                    "code": "AN",
                    "userSelected": false,
                    "display": "Account number"
                  }
                ],
                "text": "Federated Person Principal"
              },
              "value": "URN:CERNER:IDENTITY-FEDERATION:REALM:IDPR3ALM1D:PRINCIPAL:P01029304959EJ7",
              "use": "usual"
            },
            {
              "period": {
                "start": "2017-09-26T05:00:00.000Z"
              },
              "system": "urn:oid:2.16.840.1.113883.3.13.6",
              "type": {
                "coding": [
                  {
                    "system": "http://hl7.org/fhir/v2/0203",
                    "code": "AN",
                    "userSelected": false,
                    "display": "Account number"
                  }
                ],
                "text": "Federated Person Principal"
              },
              "value": "URN:CERNER:IDENTITY-FEDERATION:REALM:IDPR3ALM1D:PRINCIPAL:ZESTYTEST1500000000002",
              "use": "usual"
            },
            {
              "period": {
                "start": "2017-09-26T05:00:00.000Z",
                "end": "2019-01-02T05:00:00.000Z"
              },
              "system": "urn:oid:2.16.840.1.113883.3.13.6",
              "type": {
                "coding": [
                  {
                    "system": "http://hl7.org/fhir/v2/0203",
                    "code": "AN",
                    "userSelected": false,
                    "display": "Account number"
                  }
                ],
                "text": "Federated Person Principal"
              },
              "value": "12367",
              "use": "usual"
            },
            {
              "period": {
                "start": "2017-09-26T05:00:00.000Z",
                "end": "2019-01-02T05:00:00.000Z"
              },
              "system": "urn:oid:2.16.840.1.113883.3.13.6",
              "type": {
                "coding": [
                  {
                    "system": "http://hl7.org/fhir/v2/0203",
                    "code": "AN",
                    "userSelected": false,
                    "display": "Account number"
                  }
                ],
                "text": "Federated Person Principal"
              },
              "value": "URN:CERNER:IDENTITY-FEDERATION:REALM:687F29DD-69DD-4DE5-ACB1-FD8A2241EF3A:PRINCIPAL:LQ4SG3D28BY",
              "use": "usual"
            },
            {
              "period": {
                "start": "2017-09-26T05:00:00.000Z",
                "end": "2019-01-02T05:00:00.000Z"
              },
              "system": "urn:oid:2.16.840.1.113883.3.13.6",
              "type": {
                "coding": [
                  {
                    "system": "http://hl7.org/fhir/v2/0203",
                    "code": "AN",
                    "userSelected": false,
                    "display": "Account number"
                  }
                ],
                "text": "Federated Person Principal"
              },
              "value": "A0000000123",
              "use": "usual"
            },
            {
              "period": {
                "start": "2017-09-26T05:00:00.000Z",
                "end": "2019-01-02T05:00:00.000Z"
              },
              "system": "urn:oid:2.16.840.1.113883.3.13.6",
              "type": {
                "coding": [
                  {
                    "system": "http://hl7.org/fhir/v2/0203",
                    "code": "AN",
                    "userSelected": false,
                    "display": "Account number"
                  }
                ],
                "text": "Federated Person Principal"
              },
              "value": "123",
              "use": "usual"
            },
            {
              "period": {
                "start": "2017-09-26T05:00:00.000Z",
                "end": "2019-01-02T05:00:00.000Z"
              },
              "system": "urn:oid:2.16.840.1.113883.3.13.6",
              "type": {
                "coding": [
                  {
                    "system": "http://hl7.org/fhir/v2/0203",
                    "code": "AN",
                    "userSelected": false,
                    "display": "Account number"
                  }
                ],
                "text": "Federated Person Principal"
              },
              "value": "1236",
              "use": "usual"
            },
            {
              "period": {
                "start": "2017-09-26T05:00:00.000Z",
                "end": "2019-01-02T05:00:00.000Z"
              },
              "system": "urn:oid:2.16.840.1.113883.3.13.6",
              "type": {
                "coding": [
                  {
                    "system": "http://hl7.org/fhir/v2/0203",
                    "code": "AN",
                    "userSelected": false,
                    "display": "Account number"
                  }
                ],
                "text": "Federated Person Principal"
              },
              "value": "123679",
              "use": "usual"
            },
            {
              "period": {
                "start": "2017-09-26T05:00:00.000Z",
                "end": "2019-01-02T05:00:00.000Z"
              },
              "system": "urn:oid:2.16.840.1.113883.3.13.6",
              "type": {
                "coding": [
                  {
                    "system": "http://hl7.org/fhir/v2/0203",
                    "code": "AN",
                    "userSelected": false,
                    "display": "Account number"
                  }
                ],
                "text": "Federated Person Principal"
              },
              "value": "1236790",
              "use": "usual"
            },
            {
              "period": {
                "start": "2017-09-26T05:00:00.000Z",
                "end": "2019-01-02T05:00:00.000Z"
              },
              "system": "urn:oid:2.16.840.1.113883.3.13.6",
              "type": {
                "coding": [
                  {
                    "system": "http://hl7.org/fhir/v2/0203",
                    "code": "AN",
                    "userSelected": false,
                    "display": "Account number"
                  }
                ],
                "text": "Federated Person Principal"
              },
              "value": "1236790",
              "use": "usual"
            },
            {
              "period": {
                "start": "2016-11-01T10:00:00.000Z"
              },
              "system": "urn:oid:2.16.840.1.113883.3.13.6",
              "type": {
                "coding": [
                  {
                    "system": "http://hl7.org/fhir/v2/0203",
                    "code": "AN",
                    "userSelected": false,
                    "display": "Account number"
                  }
                ],
                "text": "Federated Person Principal"
              },
              "value": "urn:cerner:identity-federation:realm:687f29dd-69dd-4de5-acb1-fd8a2241ef3a:principal:LQ4Sg3D28BR",
              "use": "usual"
            },
            {
              "period": {
                "start": "2016-11-01T10:00:00.000Z"
              },
              "system": "urn:oid:2.16.840.1.113883.3.13.6",
              "type": {
                "coding": [
                  {
                    "system": "http://hl7.org/fhir/v2/0203",
                    "code": "AN",
                    "userSelected": false,
                    "display": "Account number"
                  }
                ],
                "text": "Federated Person Principal"
              },
              "value": "URN:CERNER:IDENTITY-FEDERATION:REALM:687F29DD-69DD-4DE5-ACB1-FD8A2241EF3A:PRINCIPAL:LQ4SG3D28BR",
              "use": "usual"
            },
            {
              "period": {
                "start": "2016-01-02T05:00:00.000Z"
              },
              "system": "urn:oid:2.16.840.1.113883.3.13.6",
              "type": {
                "coding": [
                  {
                    "system": "http://hl7.org/fhir/v2/0203",
                    "code": "AN",
                    "userSelected": false,
                    "display": "Account number"
                  }
                ],
                "text": "Federated Person Principal"
              },
              "value": "URN:CERNER:IDENTITY-FEDERATION:REALM:E8A84236-C258-4952-98B7-A6FF8A9C587A-CH:PRINCIPAL:6633521261435",
              "use": "usual"
            },
            {
              "period": {
                "start": "2016-01-02T05:00:00.000Z"
              },
              "system": "urn:oid:2.16.840.1.113883.3.13.6",
              "type": {
                "coding": [
                  {
                    "system": "http://hl7.org/fhir/v2/0203",
                    "code": "AN",
                    "userSelected": false,
                    "display": "Account number"
                  }
                ],
                "text": "Federated Person Principal"
              },
              "value": "URN:CERNER:IDENTITY-FEDERATION:REALM:E8A84236-C258-4952-98B7-A6FF8A9C587A-CH:PRINCIPAL:3232865138266",
              "use": "usual"
            },
            {
              "period": {
                "start": "2016-01-02T05:00:00.000Z"
              },
              "system": "urn:oid:2.16.840.1.113883.3.13.6",
              "type": {
                "coding": [
                  {
                    "system": "http://hl7.org/fhir/v2/0203",
                    "code": "AN",
                    "userSelected": false,
                    "display": "Account number"
                  }
                ],
                "text": "Federated Person Principal"
              },
              "value": "URN:CERNER:IDENTITY-FEDERATION:REALM:E8A84236-C258-4952-98B7-A6FF8A9C587A-CH:PRINCIPAL:7971910474888",
              "use": "usual"
            },
            {
              "period": {
                "start": "2016-01-02T05:00:00.000Z"
              },
              "system": "urn:oid:2.16.840.1.113883.3.13.6",
              "type": {
                "coding": [
                  {
                    "system": "http://hl7.org/fhir/v2/0203",
                    "code": "AN",
                    "userSelected": false,
                    "display": "Account number"
                  }
                ],
                "text": "Federated Person Principal"
              },
              "value": "URN:CERNER:IDENTITY-FEDERATION:REALM:E8A84236-C258-4952-98B7-A6FF8A9C587A-CH:PRINCIPAL:7.976463762776886",
              "use": "usual"
            },
            {
              "period": {
                "start": "2016-01-02T05:00:00.000Z"
              },
              "system": "urn:oid:2.16.840.1.113883.3.13.6",
              "type": {
                "coding": [
                  {
                    "system": "http://hl7.org/fhir/v2/0203",
                    "code": "AN",
                    "userSelected": false,
                    "display": "Account number"
                  }
                ],
                "text": "Federated Person Principal"
              },
              "value": "URN:CERNER:IDENTITY-FEDERATION:REALM:E8A84236-C258-4952-98B7-A6FF8A9C587A-CH:PRINCIPAL:69.75617998510772",
              "use": "usual"
            },
            {
              "period": {
                "start": "2016-01-02T05:00:00.000Z"
              },
              "system": "urn:oid:2.16.840.1.113883.3.13.6",
              "type": {
                "coding": [
                  {
                    "system": "http://hl7.org/fhir/v2/0203",
                    "code": "AN",
                    "userSelected": false,
                    "display": "Account number"
                  }
                ],
                "text": "Federated Person Principal"
              },
              "value": "URN:CERNER:IDENTITY-FEDERATION:REALM:E8A84236-C258-4952-98B7-A6FF8A9C587A-CH:PRINCIPAL:5.642216995941208",
              "use": "usual"
            },
            {
              "period": {
                "start": "2016-01-02T05:00:00.000Z"
              },
              "system": "urn:oid:2.16.840.1.113883.3.13.6",
              "type": {
                "coding": [
                  {
                    "system": "http://hl7.org/fhir/v2/0203",
                    "code": "AN",
                    "userSelected": false,
                    "display": "Account number"
                  }
                ],
                "text": "Federated Person Principal"
              },
              "value": "URN:CERNER:IDENTITY-FEDERATION:REALM:E8A84236-C258-4952-98B7-A6FF8A9C587A-CH:PRINCIPAL:9GD7849HM7FQ6PL230.4197597630112079",
              "use": "usual"
            },
            {
              "period": {
                "start": "2016-01-02T05:00:00.000Z"
              },
              "system": "urn:oid:2.16.840.1.113883.3.13.6",
              "type": {
                "coding": [
                  {
                    "system": "http://hl7.org/fhir/v2/0203",
                    "code": "AN",
                    "userSelected": false,
                    "display": "Account number"
                  }
                ],
                "text": "Federated Person Principal"
              },
              "value": "URN:CERNER:IDENTITY-FEDERATION:REALM:E8A84236-C258-4952-98B7-A6FF8A9C587A-CH:PRINCIPAL:9GD7849HM7FQ6PL23",
              "use": "usual"
            },
            {
              "period": {
                "start": "2016-01-02T05:00:00.000Z"
              },
              "system": "urn:oid:2.16.840.1.113883.3.13.6",
              "type": {
                "coding": [
                  {
                    "system": "http://hl7.org/fhir/v2/0203",
                    "code": "AN",
                    "userSelected": false,
                    "display": "Account number"
                  }
                ],
                "text": "Federated Person Principal"
              },
              "value": "URN:CERNER:IDENTITY-FEDERATION:REALM:E8A84236-C258-4952-98B7-A6FF8A9C587A-CH:PRINCIPAL:9G7849HM7FQ6PL23",
              "use": "usual"
            },
            {
              "period": {
                "start": "2013-09-26T05:00:00.000Z"
              },
              "system": "urn:oid:2.16.840.1.113883.3.13.8",
              "type": {
                "coding": [
                  {
                    "system": "http://hl7.org/fhir/v2/0203",
                    "code": "AN",
                    "userSelected": false,
                    "display": "Account number"
                  }
                ],
                "text": "Federated Person Principal"
              },
              "value": "9494949494",
              "use": "usual"
            },
            {
              "period": {
                "start": "2013-09-26T05:00:00.000Z"
              },
              "system": "urn:oid:2.16.840.1.113883.3.13.6",
              "type": {
                "coding": [
                  {
                    "system": "http://hl7.org/fhir/v2/0203",
                    "code": "AN",
                    "userSelected": false,
                    "display": "Account number"
                  }
                ],
                "text": "Federated Person Principal"
              },
              "value": "URN:CERNER:IDENTITY-FEDERATION:REALM:IDPR3ALM1D:PRINCIPAL:P01029304959EJ11",
              "use": "usual"
            },
            {
              "period": {
                "start": "2013-09-25T05:00:00.000Z",
                "end": "2030-01-01T05:00:00.000Z"
              },
              "system": "urn:oid:2.16.840.1.113883.3.13.6",
              "type": {
                "coding": [
                  {
                    "system": "http://hl7.org/fhir/v2/0203",
                    "code": "AN",
                    "userSelected": false,
                    "display": "Account number"
                  }
                ],
                "text": "Federated Person Principal"
              },
              "value": "URN:CERNER:IDENTITY-FEDERATION:REALM:IDPR3ALM1D:PRINCIPAL:ZESTYTEST1500000000001",
              "use": "usual"
            },
            {
              "system": "urn:oid:2.16.840.1.113883.3.13.6",
              "type": {
                "coding": [
                  {
                    "system": "http://hl7.org/fhir/v2/0203",
                    "code": "AN",
                    "userSelected": false,
                    "display": "Account number"
                  }
                ],
                "text": "Federated Person Principal"
              },
              "value": "URN:CERNER:IDENTITY-FEDERATION:REALM:2E882EFF-FA72-4882-ADC8-A685F7D2BFA6:PRINCIPAL:8088C85BCC02239D3CB1F9FE4CC1DAFD",
              "use": "usual"
            },
            {
              "system": "urn:oid:2.16.840.1.113883.3.13.6",
              "type": {
                "coding": [
                  {
                    "system": "http://hl7.org/fhir/v2/0203",
                    "code": "AN",
                    "userSelected": false,
                    "display": "Account number"
                  }
                ],
                "text": "Federated Person Principal"
              },
              "value": "URN:CERNER:IDENTITY-FEDERATION:REALM:2E882EFF-FA72-4882-ADC8-A685F7D2BFA6:PRINCIPAL:8688C85B250233295206CBFB5AC866BC",
              "use": "usual"
            },
            {
              "system": "urn:oid:2.16.840.1.113883.3.13.6",
              "type": {
                "coding": [
                  {
                    "system": "http://hl7.org/fhir/v2/0203",
                    "code": "AN",
                    "userSelected": false,
                    "display": "Account number"
                  }
                ],
                "text": "Federated Person Principal"
              },
              "value": "URN:CERNER:IDENTITY-FEDERATION:REALM:2E882EFF-FA72-4882-ADC8-A685F7D2BFA6:PRINCIPAL:A488C85B610272B838FFABC1F9D50E0C",
              "use": "usual"
            },
            {
              "system": "urn:oid:2.16.840.1.113883.3.13.6",
              "type": {
                "coding": [
                  {
                    "system": "http://hl7.org/fhir/v2/0203",
                    "code": "AN",
                    "userSelected": false,
                    "display": "Account number"
                  }
                ],
                "text": "Federated Person Principal"
              },
              "value": "URN:CERNER:IDENTITY-FEDERATION:REALM:2E882EFF-FA72-4882-ADC8-A685F7D2BFA6:PRINCIPAL:AE88C85BC500DAB370AD741A37EAC3FE",
              "use": "usual"
            },
            {
              "system": "urn:oid:2.16.840.1.113883.3.13.6",
              "type": {
                "coding": [
                  {
                    "system": "http://hl7.org/fhir/v2/0203",
                    "code": "AN",
                    "userSelected": false,
                    "display": "Account number"
                  }
                ],
                "text": "Federated Person Principal"
              },
              "value": "URN:CERNER:IDENTITY-FEDERATION:REALM:2E882EFF-FA72-4882-ADC8-A685F7D2BFA6:PRINCIPAL:E988C85BCC00DB004A47C64B1C5752A5",
              "use": "usual"
            },
            {
              "system": "urn:oid:2.16.840.1.113883.3.13.6",
              "type": {
                "coding": [
                  {
                    "system": "http://hl7.org/fhir/v2/0203",
                    "code": "AN",
                    "userSelected": false,
                    "display": "Account number"
                  }
                ],
                "text": "Federated Person Principal"
              },
              "value": "URN:CERNER:IDENTITY-FEDERATION:REALM:2E882EFF-FA72-4882-ADC8-A685F7D2BFA6:PRINCIPAL:0189C85BCE026E7FA8F139041EB38D22",
              "use": "usual"
            },
            {
              "system": "urn:oid:2.16.840.1.113883.3.13.6",
              "type": {
                "coding": [
                  {
                    "system": "http://hl7.org/fhir/v2/0203",
                    "code": "AN",
                    "userSelected": false,
                    "display": "Account number"
                  }
                ],
                "text": "Federated Person Principal"
              },
              "value": "URN:CERNER:IDENTITY-FEDERATION:REALM:2E882EFF-FA72-4882-ADC8-A685F7D2BFA6:PRINCIPAL:1189C85B3E01C154A7D8EA3A189F0804",
              "use": "usual"
            },
            {
              "system": "urn:oid:2.16.840.1.113883.3.13.6",
              "type": {
                "coding": [
                  {
                    "system": "http://hl7.org/fhir/v2/0203",
                    "code": "AN",
                    "userSelected": false,
                    "display": "Account number"
                  }
                ],
                "text": "Federated Person Principal"
              },
              "value": "URN:CERNER:IDENTITY-FEDERATION:REALM:2E882EFF-FA72-4882-ADC8-A685F7D2BFA6:PRINCIPAL:6089C85B1D0351DDF1994A0676A2EDB2",
              "use": "usual"
            },
            {
              "system": "urn:oid:2.16.840.1.113883.3.13.6",
              "type": {
                "coding": [
                  {
                    "system": "http://hl7.org/fhir/v2/0203",
                    "code": "AN",
                    "userSelected": false,
                    "display": "Account number"
                  }
                ],
                "text": "Federated Person Principal"
              },
              "value": "URN:CERNER:IDENTITY-FEDERATION:REALM:2E882EFF-FA72-4882-ADC8-A685F7D2BFA6:PRINCIPAL:AD8BC85BA503F355F89003D1A8C82A9E",
              "use": "usual"
            },
            {
              "system": "urn:oid:2.16.840.1.113883.3.13.6",
              "type": {
                "coding": [
                  {
                    "system": "http://hl7.org/fhir/v2/0203",
                    "code": "AN",
                    "userSelected": false,
                    "display": "Account number"
                  }
                ],
                "text": "Federated Person Principal"
              },
              "value": "URN:CERNER:IDENTITY-FEDERATION:REALM:2E882EFF-FA72-4882-ADC8-A685F7D2BFA6:PRINCIPAL:5E8CC85B1A02B5BDB62B197B09A75199",
              "use": "usual"
            },
            {
              "system": "urn:oid:2.16.840.1.113883.3.13.6",
              "type": {
                "coding": [
                  {
                    "system": "http://hl7.org/fhir/v2/0203",
                    "code": "AN",
                    "userSelected": false,
                    "display": "Account number"
                  }
                ],
                "text": "Federated Person Principal"
              },
              "value": "URN:CERNER:IDENTITY-FEDERATION:REALM:2E882EFF-FA72-4882-ADC8-A685F7D2BFA6:PRINCIPAL:678CC85BF40001995D63EBD66EEF5972",
              "use": "usual"
            },
            {
              "system": "urn:oid:2.16.840.1.113883.3.13.6",
              "type": {
                "coding": [
                  {
                    "system": "http://hl7.org/fhir/v2/0203",
                    "code": "AN",
                    "userSelected": false,
                    "display": "Account number"
                  }
                ],
                "text": "Federated Person Principal"
              },
              "value": "URN:CERNER:IDENTITY-FEDERATION:REALM:2E882EFF-FA72-4882-ADC8-A685F7D2BFA6:PRINCIPAL:XYZ1234567",
              "use": "usual"
            },
            {
              "system": "urn:oid:2.16.840.1.113883.3.13.6",
              "type": {
                "coding": [
                  {
                    "system": "http://hl7.org/fhir/v2/0203",
                    "code": "AN",
                    "userSelected": false,
                    "display": "Account number"
                  }
                ],
                "text": "Federated Person Principal"
              },
              "value": "URN:CERNER:IDENTITY-FEDERATION:REALM:2E882EFF-FA72-4882-ADC8-A685F7D2BFA6:PRINCIPAL:73CBCD5B30003FA1F0B57750211881B2",
              "use": "usual"
            },
            {
              "system": "urn:oid:2.16.840.1.113883.3.13.6",
              "type": {
                "coding": [
                  {
                    "system": "http://hl7.org/fhir/v2/0203",
                    "code": "AN",
                    "userSelected": false,
                    "display": "Account number"
                  }
                ],
                "text": "Federated Person Principal"
              },
              "value": "URN:CERNER:IDENTITY-FEDERATION:REALM:2E882EFF-FA72-4882-ADC8-A685F7D2BFA6:PRINCIPAL:XYZ123456",
              "use": "usual"
            },
            {
              "system": "urn:oid:2.16.840.1.113883.3.13.6",
              "type": {
                "coding": [
                  {
                    "system": "http://hl7.org/fhir/v2/0203",
                    "code": "AN",
                    "userSelected": false,
                    "display": "Account number"
                  }
                ],
                "text": "Federated Person Principal"
              },
              "value": "URN:CERNER:IDENTITY-FEDERATION:REALM:2E882EFF-FA72-4882-ADC8-A685F7D2BFA6:PRINCIPAL:20A8C75B4900A689D48A72837BF7618B",
              "use": "usual"
            },
            {
              "system": "urn:oid:2.16.840.1.113883.3.13.6",
              "type": {
                "coding": [
                  {
                    "system": "http://hl7.org/fhir/v2/0203",
                    "code": "AN",
                    "userSelected": false,
                    "display": "Account number"
                  }
                ],
                "text": "Federated Person Principal"
              },
              "value": "URN:CERNER:IDENTITY-FEDERATION:REALM:2E882EFF-FA72-4882-ADC8-A685F7D2BFA6:PRINCIPAL:DEA7C75B5602A16A00BF980B3DF70E29",
              "use": "usual"
            },
            {
              "system": "urn:oid:2.16.840.1.113883.3.13.6",
              "type": {
                "coding": [
                  {
                    "system": "http://hl7.org/fhir/v2/0203",
                    "code": "AN",
                    "userSelected": false,
                    "display": "Account number"
                  }
                ],
                "text": "Federated Person Principal"
              },
              "value": "URN:CERNER:IDENTITY-FEDERATION:REALM:2E882EFF-FA72-4882-ADC8-A685F7D2BFA6:PRINCIPAL:02A4C75B9402DC01FBAAF95A2D72E059",
              "use": "usual"
            },
            {
              "system": "urn:oid:2.16.840.1.113883.3.13.6",
              "type": {
                "coding": [
                  {
                    "system": "http://hl7.org/fhir/v2/0203",
                    "code": "AN",
                    "userSelected": false,
                    "display": "Account number"
                  }
                ],
                "text": "Federated Person Principal"
              },
              "value": "URN:CERNER:IDENTITY-FEDERATION:REALM:2E882EFF-FA72-4882-ADC8-A685F7D2BFA6:PRINCIPAL:79A2C75B43008D99899408BB8ACE7DEE",
              "use": "usual"
            },
            {
              "system": "urn:oid:2.16.840.1.113883.3.13.6",
              "type": {
                "coding": [
                  {
                    "system": "http://hl7.org/fhir/v2/0203",
                    "code": "AN",
                    "userSelected": false,
                    "display": "Account number"
                  }
                ],
                "text": "Federated Person Principal"
              },
              "value": "URN:CERNER:IDENTITY-FEDERATION:REALM:2E882EFF-FA72-4882-ADC8-A685F7D2BFA6:PRINCIPAL:5FA2C75B9001DA1DFE5ED3F3DAF6A517",
              "use": "usual"
            },
            {
              "system": "urn:oid:2.16.840.1.113883.3.13.6",
              "type": {
                "coding": [
                  {
                    "system": "http://hl7.org/fhir/v2/0203",
                    "code": "AN",
                    "userSelected": false,
                    "display": "Account number"
                  }
                ],
                "text": "Federated Person Principal"
              },
              "value": "URN:CERNER:IDENTITY-FEDERATION:REALM:2E882EFF-FA72-4882-ADC8-A685F7D2BFA6:PRINCIPAL:52A2C75B03026F291330B7DD65327690",
              "use": "usual"
            },
            {
              "system": "urn:oid:2.16.840.1.113883.3.13.6",
              "type": {
                "coding": [
                  {
                    "system": "http://hl7.org/fhir/v2/0203",
                    "code": "AN",
                    "userSelected": false,
                    "display": "Account number"
                  }
                ],
                "text": "Federated Person Principal"
              },
              "value": "URN:CERNER:IDENTITY-FEDERATION:REALM:2E882EFF-FA72-4882-ADC8-A685F7D2BFA6:PRINCIPAL:123",
              "use": "usual"
            },
            {
              "system": "urn:oid:2.16.840.1.113883.3.13.6",
              "type": {
                "coding": [
                  {
                    "system": "http://hl7.org/fhir/v2/0203",
                    "code": "AN",
                    "userSelected": false,
                    "display": "Account number"
                  }
                ],
                "text": "Federated Person Principal"
              },
              "value": "URN:CERNER:IDENTITY-FEDERATION:REALM:2E882EFF-FA72-4882-ADC8-A685F7D2BFA6:PRINCIPAL:XYZ12",
              "use": "usual"
            },
            {
              "system": "urn:oid:2.16.840.1.113883.3.13.6",
              "type": {
                "coding": [
                  {
                    "system": "http://hl7.org/fhir/v2/0203",
                    "code": "AN",
                    "userSelected": false,
                    "display": "Account number"
                  }
                ],
                "text": "Federated Person Principal"
              },
              "value": "URN:CERNER:IDENTITY-FEDERATION:REALM:2E882EFF-FA72-4882-ADC8-A685F7D2BFA6:PRINCIPAL:6088C85B78004913B151BA7615AAF455",
              "use": "usual"
            },
            {
              "system": "urn:oid:2.16.840.1.113883.3.13.6",
              "type": {
                "coding": [
                  {
                    "system": "http://hl7.org/fhir/v2/0203",
                    "code": "AN",
                    "userSelected": false,
                    "display": "Account number"
                  }
                ],
                "text": "Federated Person Principal"
              },
              "value": "URN:CERNER:IDENTITY-FEDERATION:REALM:2E882EFF-FA72-4882-ADC8-A685F7D2BFA6:PRINCIPAL:XYZ12345678",
              "use": "usual"
            },
            {
              "system": "urn:oid:2.16.840.1.113883.3.13.6",
              "type": {
                "coding": [
                  {
                    "system": "http://hl7.org/fhir/v2/0203",
                    "code": "AN",
                    "userSelected": false,
                    "display": "Account number"
                  }
                ],
                "text": "Federated Person Principal"
              },
              "value": "URN:CERNER:IDENTITY-FEDERATION:REALM:2E882EFF-FA72-4882-ADC8-A685F7D2BFA6:PRINCIPAL:E783C85B410291C9F63855A0609B051F",
              "use": "usual"
            },
            {
              "system": "urn:oid:2.16.840.1.113883.3.13.6",
              "type": {
                "coding": [
                  {
                    "system": "http://hl7.org/fhir/v2/0203",
                    "code": "AN",
                    "userSelected": false,
                    "display": "Account number"
                  }
                ],
                "text": "Federated Person Principal"
              },
              "value": "URN:CERNER:IDENTITY-FEDERATION:REALM:2E882EFF-FA72-4882-ADC8-A685F7D2BFA6:PRINCIPAL:4488C85B3102744477F87768F0C84049",
              "use": "usual"
            },
            {
              "value": "4342008",
              "use": "usual",
              "system": "https://fhir-myrecord.sandboxcerner.com/dstu2/0b8a0111-e8e6-4c26-a91c-5069cbc6b1ca"
            }
          ],
          "meta": {
            "lastUpdated": "2020-08-12T00:45:31.531Z",
            "versionId": "9000000000003"
          },
          "text": {
            "div": "<div><p><b>Patient</b></p><p><b>Name</b>: SMART, WILMA</p><p><b>DOB</b>: Mar 14, 1950</p><p><b>Birth Sex</b>: Male</p><p><b>Administrative Gender</b>: Female</p><p><b>Marital Status</b>: Divorced</p><p><b>Status</b>: Active</p></div>",
            "status": "extensions"
          },
          "address": [
            {
              "country": "USA",
              "period": {
                "start": "2017-02-07T18:56:52.000Z"
              },
              "city": "Kansas City",
              "use": "home",
              "line": ["1200 Grand Road", "_"],
              "district": "Mercer",
              "postalCode": "16145",
              "text": "1200 Grand Road\n_\nKansas City, MO 16145\nUSA",
              "state": "MO"
            }
          ],
          "name": [
            {
              "given": ["WILMA"],
              "period": {
                "start": "2016-06-22T20:25:58.000Z"
              },
              "text": "SMART, WILMA",
              "family": ["SMART"],
              "use": "official"
            },
            {
              "period": {
                "start": "2017-03-09T19:37:17.000Z"
              },
              "text": "WILLIAMS,",
              "family": ["WILLIAMS"],
              "use": "maiden"
            },
            {
              "given": ["Ganesh", "Jayaraman"],
              "period": {
                "start": "2016-06-22T20:25:58.000Z",
                "end": "2020-01-07T14:25:05.000Z"
              },
              "text": "SHANKAR, Ganesh Jayaraman",
              "family": ["SHANKAR"],
              "use": "old"
            },
            {
              "given": ["WILMA"],
              "period": {
                "start": "2016-06-22T20:25:58.000Z",
                "end": "2020-01-05T06:32:09.000Z"
              },
              "text": "SMART, WILMA",
              "family": ["SMART"],
              "use": "old"
            },
            {
              "given": ["WILMA"],
              "period": {
                "start": "2016-06-22T20:25:58.000Z",
                "end": "2019-05-21T19:06:08.000Z"
              },
              "text": "SMART, WILMA",
              "family": ["SMART"],
              "use": "old"
            }
          ],
          "gender": "female",
          "active": true,
          "maritalStatus": {
            "coding": [
              {
                "system": "http://hl7.org/fhir/v3/MaritalStatus",
                "code": "D",
                "userSelected": false,
                "display": "Divorced"
              }
            ],
            "text": "Divorced"
          },
          "resourceType": "Patient",
          "extension": [
            {
              "url": "https://api.1up.health/fhir/dstu2/StructureDefinition/99632a72d37ef630c09e44d52daf334d0ff11780261f4c46",
              "valueCode": "M"
            },
            {
              "url": "https://api.1up.health/fhir/dstu2/StructureDefinition/99632a72d37e9dc6a569021b79d3aa88d54b57bf35313f5f",
              "extension": [
                {
                  "valueCoding": {
                    "system": "http://hl7.org/fhir/v3/Ethnicity",
                    "code": "2135-2",
                    "userSelected": false,
                    "display": "Hispanic or Latino"
                  },
                  "url": "https://api.1up.health/fhir/dstu2/0b8a0111-e8e6-4c26-a91c-5069cbc6b1ca/99632a72d37eb98c6cb7d485aa9531c4136c85d2d9833a5f"
                },
                {
                  "valueString": "Hispanic or Latino",
                  "url": "https://api.1up.health/fhir/dstu2/0b8a0111-e8e6-4c26-a91c-5069cbc6b1ca/99632a72d37ea0a9e9e2fee1488ed763c1cc212ac461342d"
                }
              ]
            }
          ],
          "telecom": [
            {
              "period": {
                "start": "2017-06-27T17:28:04.000Z"
              },
              "system": "phone",
              "value": "8165477777",
              "use": "work"
            },
            {
              "period": {
                "start": "2017-02-07T18:56:52.000Z"
              },
              "system": "phone",
              "value": "8169519999",
              "use": "home"
            },
            {
              "period": {
                "start": "2017-06-27T17:31:07.000Z"
              },
              "system": "phone",
              "value": "5032458888",
              "use": "mobile"
            },
            {
              "period": {
                "start": "2019-10-22T20:11:00.000Z"
              },
              "system": "email",
              "value": "Alt2_wilmasmart@google.com",
              "use": "work"
            },
            {
              "period": {
                "start": "2017-12-01T16:52:18.000Z"
              },
              "system": "email",
              "value": "wilma_smart@google.com",
              "use": "home"
            }
          ],
          "id": "3d3d15496c25",
          "communication": [
            {
              "language": {
                "coding": [
                  {
                    "system": "urn:ietf:bcp:47",
                    "code": "en",
                    "userSelected": false,
                    "display": "English"
                  }
                ],
                "text": "English"
              },
              "preferred": true
            }
          ]
        }
      }
    ]
  }
}
